lab1b/lab_1b/lab_1b.sim/sim_1/impl/timing/xsim/simulate.log
Time resolution is 1 ps
Time = 0: switches_inputs = xxxxxxxxxxxxxxxx, led = xxxxxxxxxxxxxxxx, segs = xxxxxxx, ans x
Time = 7000: switches_inputs = xxxxxxxxxxxxxxxx, led = xxxxxxxxxxxxxxxx, segs = xxxxxxx, ans X
Time = 7000: switches_inputs = xxxxxxxxxxxxxxxx, led = xxxxxxxxxxxxxxxx, segs = xxxxxxx, ans X
Time = 7000: switches_inputs = xxxxxxxxxxxxxxxx, led = xxxxxxxxxxxxxxxx, segs = xxxxxxx, ans X
Time = 7000: switches_inputs = xxxxxxxxxxxxxxxx, led = xxxxxxxxxxxxxxxx, segs = xxxxxxx, ans 8
Time = 8000: switches_inputs = xxxxxxxxxxxxxxxx, led = xxxxxxxxxxxxxxxx, segs = x0xxxxx, ans 8
Time = 8000: switches_inputs = xxxxxxxxxxxxxxxx, led = xxxxxxxxxxxxxxxx, segs = x00xxxx, ans 8
Time = 8000: switches_inputs = xxxxxxxxxxxxxxxx, led = xxxxxxxxxxxxxxxx, segs = x00xxx0, ans 8
Time = 9000: switches_inputs = xxxxxxxxxxxxxxxx, led = xxxxxxxxxxxxxxxx, segs = x00x0x0, ans 8
Time = 9000: switches_inputs = xxxxxxxxxxxxxxxx, led = xxxxxxxxxxxxxxxx, segs = x0000x0, ans 8
Time = 9000: switches_inputs = xxxxxxxxxxxxxxxx, led = xxxxxxxxxxxxxxxx, segs = x000000, ans 8
Time = 9000: switches_inputs = xxxxxxxxxxxxxxxx, led = xxxxxxxxxxxxxxxx, segs = 1000000, ans 8
Time = 30000: switches_inputs = 0000000000000000, led = xxxxxxxxxxxxxxxx, segs = 1000000, ans 8
Time = 37000: switches_inputs = 0000000000000000, led = xxxxxxxxxx0xxxxx, segs = 1000000, ans 8
Time = 37000: switches_inputs = 0000000000000000, led = xxxxxxxx0x0xxxxx, segs = 1000000, ans 8
Time = 37000: switches_inputs = 0000000000000000, led = xxxxxx0x0x0xxxxx, segs = 1000000, ans 8
Time = 37000: switches_inputs = 0000000000000000, led = xxxxxx0x0x0xxxx0, segs = 1000000, ans 8
Time = 37000: switches_inputs = 0000000000000000, led = xxxxxx0x000xxxx0, segs = 1000000, ans 8
Time = 37000: switches_inputs = 0000000000000000, led = xxxxxx0x000xx0x0, segs = 1000000, ans 8
Time = 37000: switches_inputs = 0000000000000000, led = xxxxxx0x000x00x0, segs = 1000000, ans 8
Time = 37000: switches_inputs = 0000000000000000, led = xxxxxx0x000000x0, segs = 1000000, ans 8
Time = 37000: switches_inputs = 0000000000000000, led = xxxxx00x000000x0, segs = 1000000, ans 8
Time = 37000: switches_inputs = 0000000000000000, led = xxxx000x000000x0, segs = 1000000, ans 8
Time = 37000: switches_inputs = 0000000000000000, led = x0xx000x000000x0, segs = 1000000, ans 8
Time = 38000: switches_inputs = 0000000000000000, led = x00x000x000000x0, segs = 1000000, ans 8
Time = 38000: switches_inputs = 0000000000000000, led = x00x000x00000000, segs = 1000000, ans 8
Time = 38000: switches_inputs = 0000000000000000, led = 000x000x00000000, segs = 1000000, ans 8
Time = 38000: switches_inputs = 0000000000000000, led = 0000000x00000000, segs = 1000000, ans 8
Time = 40000: switches_inputs = 0000000000000000, led = 0000000000000000, segs = 1000000, ans 8
Time = 107000: switches_inputs = 0000000000000000, led = 0000000000000000, segs = 1000000, ans10
Time = 107000: switches_inputs = 0000000000000000, led = 0000000000000000, segs = 1000000, ans11
Time = 107000: switches_inputs = 0000000000000000, led = 0000000000000000, segs = 1000000, ans 3
Time = 107000: switches_inputs = 0000000000000000, led = 0000000000000000, segs = 1000000, ans 7
Time = 130000: switches_inputs = 1111111111111111, led = 0000000000000000, segs = 1000000, ans 7
Time = 137000: switches_inputs = 1111111111111111, led = 0000000000100000, segs = 1000000, ans 7
Time = 137000: switches_inputs = 1111111111111111, led = 0000000010100000, segs = 1000000, ans 7
Time = 137000: switches_inputs = 1111111111111111, led = 0000001010100000, segs = 1000000, ans 7
Time = 137000: switches_inputs = 1111111111111111, led = 0000001010100001, segs = 1000000, ans 7
Time = 137000: switches_inputs = 1111111111111111, led = 0000001011100001, segs = 1000000, ans 7
Time = 137000: switches_inputs = 1111111111111111, led = 0000001011100101, segs = 1000000, ans 7
Time = 137000: switches_inputs = 1111111111111111, led = 0000001011101101, segs = 1000000, ans 7
Time = 137000: switches_inputs = 1111111111111111, led = 0000001011111101, segs = 1000000, ans 7
Time = 137000: switches_inputs = 1111111111111111, led = 0000011011111101, segs = 1000000, ans 7
Time = 137000: switches_inputs = 1111111111111111, led = 0000111011111101, segs = 1000000, ans 7
Time = 137000: switches_inputs = 1111111111111111, led = 0100111011111101, segs = 1000000, ans 7
Time = 138000: switches_inputs = 1111111111111111, led = 0110111011111101, segs = 1000000, ans 7
Time = 138000: switches_inputs = 1111111111111111, led = 0110111011111111, segs = 1000000, ans 7
Time = 138000: switches_inputs = 1111111111111111, led = 1110111011111111, segs = 1000000, ans 7
Time = 138000: switches_inputs = 1111111111111111, led = 1111111011111111, segs = 1000000, ans 7
Time = 139000: switches_inputs = 1111111111111111, led = 1111111011111111, segs = 1010000, ans 7
Time = 139000: switches_inputs = 1111111111111111, led = 1111111011111111, segs = 1010001, ans 7
Time = 139000: switches_inputs = 1111111111111111, led = 1111111011111111, segs = 1010000, ans 7
Time = 139000: switches_inputs = 1111111111111111, led = 1111111011111111, segs = 1010100, ans 7
Time = 139000: switches_inputs = 1111111111111111, led = 1111111011111111, segs = 1110100, ans 7
Time = 139000: switches_inputs = 1111111111111111, led = 1111111011111111, segs = 1110000, ans 7
Time = 140000: switches_inputs = 1111111111111111, led = 1111111011111111, segs = 0110000, ans 7
Time = 140000: switches_inputs = 1111111111111111, led = 1111111011111111, segs = 0111000, ans 7
Time = 140000: switches_inputs = 1111111111111111, led = 1111111111111111, segs = 0111000, ans 7
Time = 140000: switches_inputs = 1111111111111111, led = 1111111111111111, segs = 1111000, ans 7
Time = 140000: switches_inputs = 1111111111111111, led = 1111111111111111, segs = 1011000, ans 7
Time = 140000: switches_inputs = 1111111111111111, led = 1111111111111111, segs = 1011010, ans 7
Time = 141000: switches_inputs = 1111111111111111, led = 1111111111111111, segs = 1011110, ans 7
Time = 141000: switches_inputs = 1111111111111111, led = 1111111111111111, segs = 1001110, ans 7
Time = 141000: switches_inputs = 1111111111111111, led = 1111111111111111, segs = 0001110, ans 7
Time = 230000: switches_inputs = 0101010101010101, led = 1111111111111111, segs = 0001110, ans 7
Time = 237000: switches_inputs = 0101010101010101, led = 1111111111011111, segs = 0001110, ans 7
Time = 237000: switches_inputs = 0101010101010101, led = 1111110111011111, segs = 0001110, ans 7
Time = 237000: switches_inputs = 0101010101010101, led = 1111110101011111, segs = 0001110, ans 7
Time = 237000: switches_inputs = 0101010101010101, led = 1111110101010111, segs = 0001110, ans 7
Time = 237000: switches_inputs = 0101010101010101, led = 1111010101010111, segs = 0001110, ans 7
Time = 238000: switches_inputs = 0101010101010101, led = 1101010101010111, segs = 0001110, ans 7
Time = 238000: switches_inputs = 0101010101010101, led = 1101010101010101, segs = 0001110, ans 7
Time = 238000: switches_inputs = 0101010101010101, led = 0101010101010101, segs = 0001110, ans 7
Time = 239000: switches_inputs = 0101010101010101, led = 0101010101010101, segs = 0001010, ans 7
Time = 239000: switches_inputs = 0101010101010101, led = 0101010101010101, segs = 0000010, ans 7
Time = 239000: switches_inputs = 0101010101010101, led = 0101010101010101, segs = 0000000, ans 7
Time = 240000: switches_inputs = 0101010101010101, led = 0101010101010101, segs = 1000000, ans 7
Time = 241000: switches_inputs = 0101010101010101, led = 0101010101010101, segs = 1000010, ans 7
Time = 241000: switches_inputs = 0101010101010101, led = 0101010101010101, segs = 1010010, ans 7
Time = 241000: switches_inputs = 0101010101010101, led = 0101010101010101, segs = 0010010, ans 7
Time = 330000: switches_inputs = 1010101010101010, led = 0101010101010101, segs = 0010010, ans 7
Time = 337000: switches_inputs = 1010101010101010, led = 0101010101110101, segs = 0010010, ans 7
Time = 337000: switches_inputs = 1010101010101010, led = 0101010111110101, segs = 0010010, ans 7
Time = 337000: switches_inputs = 1010101010101010, led = 0101011111110101, segs = 0010010, ans 7
Time = 337000: switches_inputs = 1010101010101010, led = 0101011111110100, segs = 0010010, ans 7
Time = 337000: switches_inputs = 1010101010101010, led = 0101011110110100, segs = 0010010, ans 7
Time = 337000: switches_inputs = 1010101010101010, led = 0101011110110000, segs = 0010010, ans 7
Time = 337000: switches_inputs = 1010101010101010, led = 0101011110111000, segs = 0010010, ans 7
Time = 337000: switches_inputs = 1010101010101010, led = 0101011110101000, segs = 0010010, ans 7
Time = 337000: switches_inputs = 1010101010101010, led = 0101001110101000, segs = 0010010, ans 7
Time = 337000: switches_inputs = 1010101010101010, led = 0101101110101000, segs = 0010010, ans 7
Time = 337000: switches_inputs = 1010101010101010, led = 0001101110101000, segs = 0010010, ans 7
Time = 338000: switches_inputs = 1010101010101010, led = 0011101110101000, segs = 0010010, ans 7
Time = 338000: switches_inputs = 1010101010101010, led = 0011101110101010, segs = 0010010, ans 7
Time = 338000: switches_inputs = 1010101010101010, led = 1011101110101010, segs = 0010010, ans 7
Time = 338000: switches_inputs = 1010101010101010, led = 1010101110101010, segs = 0010010, ans 7
Time = 339000: switches_inputs = 1010101010101010, led = 1010101110101010, segs = 0010011, ans 7
Time = 339000: switches_inputs = 1010101010101010, led = 1010101110101010, segs = 0010010, ans 7
Time = 339000: switches_inputs = 1010101010101010, led = 1010101110101010, segs = 0011010, ans 7
Time = 339000: switches_inputs = 1010101010101010, led = 1010101110101010, segs = 0111010, ans 7
Time = 339000: switches_inputs = 1010101010101010, led = 1010101110101010, segs = 0111000, ans 7
Time = 339000: switches_inputs = 1010101010101010, led = 1010101110101010, segs = 0110000, ans 7
Time = 339000: switches_inputs = 1010101010101010, led = 1010101110101010, segs = 0010000, ans 7
Time = 339000: switches_inputs = 1010101010101010, led = 1010101110101010, segs = 0010010, ans 7
Time = 339000: switches_inputs = 1010101010101010, led = 1010101110101010, segs = 0000010, ans 7
Time = 340000: switches_inputs = 1010101010101010, led = 1010101110101010, segs = 1000010, ans 7
Time = 340000: switches_inputs = 1010101010101010, led = 1010101110101010, segs = 0000010, ans 7
Time = 340000: switches_inputs = 1010101010101010, led = 1010101110101010, segs = 0000110, ans 7
Time = 340000: switches_inputs = 1010101010101010, led = 1010101110101010, segs = 0100110, ans 7
Time = 340000: switches_inputs = 1010101010101010, led = 1010101110101010, segs = 0100100, ans 7
Time = 340000: switches_inputs = 1010101010101010, led = 1010101010101010, segs = 0100100, ans 7
Time = 340000: switches_inputs = 1010101010101010, led = 1010101010101010, segs = 0101100, ans 7
Time = 340000: switches_inputs = 1010101010101010, led = 1010101010101010, segs = 0001100, ans 7
Time = 341000: switches_inputs = 1010101010101010, led = 1010101010101010, segs = 0001000, ans 7
Time = 430000: switches_inputs = 1100110011001100, led = 1010101010101010, segs = 0001000, ans 7
Time = 437000: switches_inputs = 1100110011001100, led = 1010101010001010, segs = 0001000, ans 7
Time = 437000: switches_inputs = 1100110011001100, led = 1010100010001010, segs = 0001000, ans 7
Time = 437000: switches_inputs = 1100110011001100, led = 1010100011001010, segs = 0001000, ans 7
Time = 437000: switches_inputs = 1100110011001100, led = 1010100011001110, segs = 0001000, ans 7
Time = 437000: switches_inputs = 1100110011001100, led = 1010110011001110, segs = 0001000, ans 7
Time = 437000: switches_inputs = 1100110011001100, led = 1110110011001110, segs = 0001000, ans 7
Time = 438000: switches_inputs = 1100110011001100, led = 1100110011001110, segs = 0001000, ans 7
Time = 438000: switches_inputs = 1100110011001100, led = 1100110011001100, segs = 0001000, ans 7
Time = 439000: switches_inputs = 1100110011001100, led = 1100110011001100, segs = 0000000, ans 7
Time = 440000: switches_inputs = 1100110011001100, led = 1100110011001100, segs = 0000100, ans 7
Time = 440000: switches_inputs = 1100110011001100, led = 1100110011001100, segs = 0000110, ans 7
Time = 440000: switches_inputs = 1100110011001100, led = 1100110011001100, segs = 1000110, ans 7
Time = 530000: switches_inputs = 0011001100110011, led = 1100110011001100, segs = 1000110, ans 7
Time = 537000: switches_inputs = 0011001100110011, led = 1100110011101100, segs = 1000110, ans 7
Time = 537000: switches_inputs = 0011001100110011, led = 1100110001101100, segs = 1000110, ans 7
Time = 537000: switches_inputs = 0011001100110011, led = 1100111001101100, segs = 1000110, ans 7
Time = 537000: switches_inputs = 0011001100110011, led = 1100111001101101, segs = 1000110, ans 7
Time = 537000: switches_inputs = 0011001100110011, led = 1100111000101101, segs = 1000110, ans 7
Time = 537000: switches_inputs = 0011001100110011, led = 1100111000101001, segs = 1000110, ans 7
Time = 537000: switches_inputs = 0011001100110011, led = 1100111000100001, segs = 1000110, ans 7
Time = 537000: switches_inputs = 0011001100110011, led = 1100111000110001, segs = 1000110, ans 7
Time = 537000: switches_inputs = 0011001100110011, led = 1100101000110001, segs = 1000110, ans 7
Time = 537000: switches_inputs = 0011001100110011, led = 1100001000110001, segs = 1000110, ans 7
Time = 537000: switches_inputs = 0011001100110011, led = 1000001000110001, segs = 1000110, ans 7
Time = 538000: switches_inputs = 0011001100110011, led = 1010001000110001, segs = 1000110, ans 7
Time = 538000: switches_inputs = 0011001100110011, led = 1010001000110011, segs = 1000110, ans 7
Time = 538000: switches_inputs = 0011001100110011, led = 0010001000110011, segs = 1000110, ans 7
Time = 538000: switches_inputs = 0011001100110011, led = 0011001000110011, segs = 1000110, ans 7
Time = 539000: switches_inputs = 0011001100110011, led = 0011001000110011, segs = 1001110, ans 7
Time = 540000: switches_inputs = 0011001100110011, led = 0011001000110011, segs = 0001110, ans 7
Time = 540000: switches_inputs = 0011001100110011, led = 0011001000110011, segs = 0001010, ans 7
Time = 540000: switches_inputs = 0011001100110011, led = 0011001000110011, segs = 0000010, ans 7
Time = 540000: switches_inputs = 0011001100110011, led = 0011001000110011, segs = 0000000, ans 7
Time = 540000: switches_inputs = 0011001100110011, led = 0011001100110011, segs = 0000000, ans 7
Time = 540000: switches_inputs = 0011001100110011, led = 0011001100110011, segs = 0100000, ans 7
Time = 541000: switches_inputs = 0011001100110011, led = 0011001100110011, segs = 0110000, ans 7
$stop called at time : 680 ns : File "C:/Users/fulbr/Documents/School Documents/ENEL453_2025/ENEL-453/lab1b/lab_1b/lab_1b_top_level_tb.sv" Line 67
